^D:\DOCUMENTS\FER\PROJEKT\DPBR\DPBR\CUBEMAP.CPP
/c /I"D:\DOCUMENTS\FER\PROJEKT\DPBR\\EXTLIBS\GLEW-2.0.0\INCLUDE" /I"D:\DOCUMENTS\FER\PROJEKT\DPBR\\EXTLIBS\GLFW-3.2.1.BIN.WIN64\INCLUDE" /ZI /nologo /W3 /WX- /Od /D _DEBUG /D _CONSOLE /D _UNICODE /D UNICODE /Gm /EHsc /RTC1 /MDd /GS /fp:precise /Zc:wchar_t /Zc:forScope /Zc:inline /Fo"X64\DEBUG\\" /Fd"X64\DEBUG\VC140.PDB" /Gd /TP D:\DOCUMENTS\FER\PROJEKT\DPBR\DPBR\CUBEMAP.CPP
^D:\DOCUMENTS\FER\PROJEKT\DPBR\DPBR\DDSLOADER.CPP
/c /I"D:\DOCUMENTS\FER\PROJEKT\DPBR\\EXTLIBS\GLEW-2.0.0\INCLUDE" /I"D:\DOCUMENTS\FER\PROJEKT\DPBR\\EXTLIBS\GLFW-3.2.1.BIN.WIN64\INCLUDE" /ZI /nologo /W3 /WX- /Od /D _DEBUG /D _CONSOLE /D _UNICODE /D UNICODE /Gm /EHsc /RTC1 /MDd /GS /fp:precise /Zc:wchar_t /Zc:forScope /Zc:inline /Fo"X64\DEBUG\\" /Fd"X64\DEBUG\VC140.PDB" /Gd /TP D:\DOCUMENTS\FER\PROJEKT\DPBR\DPBR\DDSLOADER.CPP
^D:\DOCUMENTS\FER\PROJEKT\DPBR\DPBR\LIGHT.CPP
/c /I"D:\DOCUMENTS\FER\PROJEKT\DPBR\\EXTLIBS\GLEW-2.0.0\INCLUDE" /I"D:\DOCUMENTS\FER\PROJEKT\DPBR\\EXTLIBS\GLFW-3.2.1.BIN.WIN64\INCLUDE" /ZI /nologo /W3 /WX- /Od /D _DEBUG /D _CONSOLE /D _UNICODE /D UNICODE /Gm /EHsc /RTC1 /MDd /GS /fp:precise /Zc:wchar_t /Zc:forScope /Zc:inline /Fo"X64\DEBUG\\" /Fd"X64\DEBUG\VC140.PDB" /Gd /TP D:\DOCUMENTS\FER\PROJEKT\DPBR\DPBR\LIGHT.CPP
^D:\DOCUMENTS\FER\PROJEKT\DPBR\DPBR\MAIN.CPP
/c /I"D:\DOCUMENTS\FER\PROJEKT\DPBR\\EXTLIBS\GLEW-2.0.0\INCLUDE" /I"D:\DOCUMENTS\FER\PROJEKT\DPBR\\EXTLIBS\GLFW-3.2.1.BIN.WIN64\INCLUDE" /ZI /nologo /W3 /WX- /Od /D _DEBUG /D _CONSOLE /D _UNICODE /D UNICODE /Gm /EHsc /RTC1 /MDd /GS /fp:precise /Zc:wchar_t /Zc:forScope /Zc:inline /Fo"X64\DEBUG\\" /Fd"X64\DEBUG\VC140.PDB" /Gd /TP D:\DOCUMENTS\FER\PROJEKT\DPBR\DPBR\MAIN.CPP
^D:\DOCUMENTS\FER\PROJEKT\DPBR\DPBR\MODEL.CPP
/c /I"D:\DOCUMENTS\FER\PROJEKT\DPBR\\EXTLIBS\GLEW-2.0.0\INCLUDE" /I"D:\DOCUMENTS\FER\PROJEKT\DPBR\\EXTLIBS\GLFW-3.2.1.BIN.WIN64\INCLUDE" /ZI /nologo /W3 /WX- /Od /D _DEBUG /D _CONSOLE /D _UNICODE /D UNICODE /Gm /EHsc /RTC1 /MDd /GS /fp:precise /Zc:wchar_t /Zc:forScope /Zc:inline /Fo"X64\DEBUG\\" /Fd"X64\DEBUG\VC140.PDB" /Gd /TP D:\DOCUMENTS\FER\PROJEKT\DPBR\DPBR\MODEL.CPP
^D:\DOCUMENTS\FER\PROJEKT\DPBR\DPBR\RENDERER.CPP
/c /I"D:\DOCUMENTS\FER\PROJEKT\DPBR\\EXTLIBS\GLEW-2.0.0\INCLUDE" /I"D:\DOCUMENTS\FER\PROJEKT\DPBR\\EXTLIBS\GLFW-3.2.1.BIN.WIN64\INCLUDE" /ZI /nologo /W3 /WX- /Od /D _DEBUG /D _CONSOLE /D _UNICODE /D UNICODE /Gm /EHsc /RTC1 /MDd /GS /fp:precise /Zc:wchar_t /Zc:forScope /Zc:inline /Fo"X64\DEBUG\\" /Fd"X64\DEBUG\VC140.PDB" /Gd /TP D:\DOCUMENTS\FER\PROJEKT\DPBR\DPBR\RENDERER.CPP
^D:\DOCUMENTS\FER\PROJEKT\DPBR\DPBR\SHADER.CPP
/c /I"D:\DOCUMENTS\FER\PROJEKT\DPBR\\EXTLIBS\GLEW-2.0.0\INCLUDE" /I"D:\DOCUMENTS\FER\PROJEKT\DPBR\\EXTLIBS\GLFW-3.2.1.BIN.WIN64\INCLUDE" /ZI /nologo /W3 /WX- /Od /D _DEBUG /D _CONSOLE /D _UNICODE /D UNICODE /Gm /EHsc /RTC1 /MDd /GS /fp:precise /Zc:wchar_t /Zc:forScope /Zc:inline /Fo"X64\DEBUG\\" /Fd"X64\DEBUG\VC140.PDB" /Gd /TP D:\DOCUMENTS\FER\PROJEKT\DPBR\DPBR\SHADER.CPP
^D:\DOCUMENTS\FER\PROJEKT\DPBR\DPBR\TEXTURE.CPP
/c /I"D:\DOCUMENTS\FER\PROJEKT\DPBR\\EXTLIBS\GLEW-2.0.0\INCLUDE" /I"D:\DOCUMENTS\FER\PROJEKT\DPBR\\EXTLIBS\GLFW-3.2.1.BIN.WIN64\INCLUDE" /ZI /nologo /W3 /WX- /Od /D _DEBUG /D _CONSOLE /D _UNICODE /D UNICODE /Gm /EHsc /RTC1 /MDd /GS /fp:precise /Zc:wchar_t /Zc:forScope /Zc:inline /Fo"X64\DEBUG\\" /Fd"X64\DEBUG\VC140.PDB" /Gd /TP D:\DOCUMENTS\FER\PROJEKT\DPBR\DPBR\TEXTURE.CPP
^C:\USERS\ADMIN\GITPROJECTS\DPBR\DPBR\CUBEMAP.CPP
/c /I"C:\USERS\ADMIN\GITPROJECTS\DPBR\\EXTLIBS\GLEW-2.0.0\INCLUDE" /I"C:\USERS\ADMIN\GITPROJECTS\DPBR\\EXTLIBS\GLFW-3.2.1.BIN.WIN64\INCLUDE" /ZI /nologo /W3 /WX- /Od /D _DEBUG /D _CONSOLE /D _UNICODE /D UNICODE /Gm /EHsc /RTC1 /MDd /GS /fp:precise /Zc:wchar_t /Zc:forScope /Zc:inline /Fo"X64\DEBUG\\" /Fd"X64\DEBUG\VC140.PDB" /Gd /TP C:\USERS\ADMIN\GITPROJECTS\DPBR\DPBR\CUBEMAP.CPP
^C:\USERS\ADMIN\GITPROJECTS\DPBR\DPBR\DDSLOADER.CPP
/c /I"C:\USERS\ADMIN\GITPROJECTS\DPBR\\EXTLIBS\GLEW-2.0.0\INCLUDE" /I"C:\USERS\ADMIN\GITPROJECTS\DPBR\\EXTLIBS\GLFW-3.2.1.BIN.WIN64\INCLUDE" /ZI /nologo /W3 /WX- /Od /D _DEBUG /D _CONSOLE /D _UNICODE /D UNICODE /Gm /EHsc /RTC1 /MDd /GS /fp:precise /Zc:wchar_t /Zc:forScope /Zc:inline /Fo"X64\DEBUG\\" /Fd"X64\DEBUG\VC140.PDB" /Gd /TP C:\USERS\ADMIN\GITPROJECTS\DPBR\DPBR\DDSLOADER.CPP
^C:\USERS\ADMIN\GITPROJECTS\DPBR\DPBR\LIGHT.CPP
/c /I"C:\USERS\ADMIN\GITPROJECTS\DPBR\\EXTLIBS\GLEW-2.0.0\INCLUDE" /I"C:\USERS\ADMIN\GITPROJECTS\DPBR\\EXTLIBS\GLFW-3.2.1.BIN.WIN64\INCLUDE" /ZI /nologo /W3 /WX- /Od /D _DEBUG /D _CONSOLE /D _UNICODE /D UNICODE /Gm /EHsc /RTC1 /MDd /GS /fp:precise /Zc:wchar_t /Zc:forScope /Zc:inline /Fo"X64\DEBUG\\" /Fd"X64\DEBUG\VC140.PDB" /Gd /TP C:\USERS\ADMIN\GITPROJECTS\DPBR\DPBR\LIGHT.CPP
^C:\USERS\ADMIN\GITPROJECTS\DPBR\DPBR\MAIN.CPP
/c /I"C:\USERS\ADMIN\GITPROJECTS\DPBR\\EXTLIBS\GLEW-2.0.0\INCLUDE" /I"C:\USERS\ADMIN\GITPROJECTS\DPBR\\EXTLIBS\GLFW-3.2.1.BIN.WIN64\INCLUDE" /ZI /nologo /W3 /WX- /Od /D _DEBUG /D _CONSOLE /D _UNICODE /D UNICODE /Gm /EHsc /RTC1 /MDd /GS /fp:precise /Zc:wchar_t /Zc:forScope /Zc:inline /Fo"X64\DEBUG\\" /Fd"X64\DEBUG\VC140.PDB" /Gd /TP C:\USERS\ADMIN\GITPROJECTS\DPBR\DPBR\MAIN.CPP
^C:\USERS\ADMIN\GITPROJECTS\DPBR\DPBR\MODEL.CPP
/c /I"C:\USERS\ADMIN\GITPROJECTS\DPBR\\EXTLIBS\GLEW-2.0.0\INCLUDE" /I"C:\USERS\ADMIN\GITPROJECTS\DPBR\\EXTLIBS\GLFW-3.2.1.BIN.WIN64\INCLUDE" /ZI /nologo /W3 /WX- /Od /D _DEBUG /D _CONSOLE /D _UNICODE /D UNICODE /Gm /EHsc /RTC1 /MDd /GS /fp:precise /Zc:wchar_t /Zc:forScope /Zc:inline /Fo"X64\DEBUG\\" /Fd"X64\DEBUG\VC140.PDB" /Gd /TP C:\USERS\ADMIN\GITPROJECTS\DPBR\DPBR\MODEL.CPP
^C:\USERS\ADMIN\GITPROJECTS\DPBR\DPBR\RENDERER.CPP
/c /I"C:\USERS\ADMIN\GITPROJECTS\DPBR\\EXTLIBS\GLEW-2.0.0\INCLUDE" /I"C:\USERS\ADMIN\GITPROJECTS\DPBR\\EXTLIBS\GLFW-3.2.1.BIN.WIN64\INCLUDE" /ZI /nologo /W3 /WX- /Od /D _DEBUG /D _CONSOLE /D _UNICODE /D UNICODE /Gm /EHsc /RTC1 /MDd /GS /fp:precise /Zc:wchar_t /Zc:forScope /Zc:inline /Fo"X64\DEBUG\\" /Fd"X64\DEBUG\VC140.PDB" /Gd /TP C:\USERS\ADMIN\GITPROJECTS\DPBR\DPBR\RENDERER.CPP
^C:\USERS\ADMIN\GITPROJECTS\DPBR\DPBR\SHADER.CPP
/c /I"C:\USERS\ADMIN\GITPROJECTS\DPBR\\EXTLIBS\GLEW-2.0.0\INCLUDE" /I"C:\USERS\ADMIN\GITPROJECTS\DPBR\\EXTLIBS\GLFW-3.2.1.BIN.WIN64\INCLUDE" /ZI /nologo /W3 /WX- /Od /D _DEBUG /D _CONSOLE /D _UNICODE /D UNICODE /Gm /EHsc /RTC1 /MDd /GS /fp:precise /Zc:wchar_t /Zc:forScope /Zc:inline /Fo"X64\DEBUG\\" /Fd"X64\DEBUG\VC140.PDB" /Gd /TP C:\USERS\ADMIN\GITPROJECTS\DPBR\DPBR\SHADER.CPP
^C:\USERS\ADMIN\GITPROJECTS\DPBR\DPBR\TEXTURE.CPP
/c /I"C:\USERS\ADMIN\GITPROJECTS\DPBR\\EXTLIBS\GLEW-2.0.0\INCLUDE" /I"C:\USERS\ADMIN\GITPROJECTS\DPBR\\EXTLIBS\GLFW-3.2.1.BIN.WIN64\INCLUDE" /ZI /nologo /W3 /WX- /Od /D _DEBUG /D _CONSOLE /D _UNICODE /D UNICODE /Gm /EHsc /RTC1 /MDd /GS /fp:precise /Zc:wchar_t /Zc:forScope /Zc:inline /Fo"X64\DEBUG\\" /Fd"X64\DEBUG\VC140.PDB" /Gd /TP C:\USERS\ADMIN\GITPROJECTS\DPBR\DPBR\TEXTURE.CPP
