^C:\USERS\ADMIN\GITPROJECTS\DPBR\DPBR\CUBEMAP.CPP|C:\USERS\ADMIN\GITPROJECTS\DPBR\DPBR\DDSLOADER.CPP|C:\USERS\ADMIN\GITPROJECTS\DPBR\DPBR\LIGHT.CPP|C:\USERS\ADMIN\GITPROJECTS\DPBR\DPBR\MAIN.CPP|C:\USERS\ADMIN\GITPROJECTS\DPBR\DPBR\MODEL.CPP|C:\USERS\ADMIN\GITPROJECTS\DPBR\DPBR\RENDERER.CPP|C:\USERS\ADMIN\GITPROJECTS\DPBR\DPBR\SHADER.CPP|C:\USERS\ADMIN\GITPROJECTS\DPBR\DPBR\TEXTURE.CPP
C:\USERS\ADMIN\GITPROJECTS\DPBR\DPBR\X64\DEBUG\VC140.PDB
C:\USERS\ADMIN\GITPROJECTS\DPBR\DPBR\X64\DEBUG\VC140.IDB
C:\USERS\ADMIN\GITPROJECTS\DPBR\DPBR\X64\DEBUG\CUBEMAP.OBJ
C:\USERS\ADMIN\GITPROJECTS\DPBR\DPBR\X64\DEBUG\LIGHT.OBJ
C:\USERS\ADMIN\GITPROJECTS\DPBR\DPBR\X64\DEBUG\MODEL.OBJ
C:\USERS\ADMIN\GITPROJECTS\DPBR\DPBR\X64\DEBUG\RENDERER.OBJ
C:\USERS\ADMIN\GITPROJECTS\DPBR\DPBR\X64\DEBUG\SHADER.OBJ
C:\USERS\ADMIN\GITPROJECTS\DPBR\DPBR\X64\DEBUG\TEXTURE.OBJ
C:\USERS\ADMIN\GITPROJECTS\DPBR\DPBR\X64\DEBUG\DDSLOADER.OBJ
C:\USERS\ADMIN\GITPROJECTS\DPBR\DPBR\X64\DEBUG\MAIN.OBJ
^C:\USERS\ADMIN\GITPROJECTS\DPBR\DPBR\CUBEMAP.CPP
C:\USERS\ADMIN\GITPROJECTS\DPBR\DPBR\X64\DEBUG\VC140.PDB
^C:\USERS\ADMIN\GITPROJECTS\DPBR\DPBR\LIGHT.CPP
C:\USERS\ADMIN\GITPROJECTS\DPBR\DPBR\X64\DEBUG\VC140.PDB
^C:\USERS\ADMIN\GITPROJECTS\DPBR\DPBR\MODEL.CPP
C:\USERS\ADMIN\GITPROJECTS\DPBR\DPBR\X64\DEBUG\VC140.PDB
^C:\USERS\ADMIN\GITPROJECTS\DPBR\DPBR\RENDERER.CPP
C:\USERS\ADMIN\GITPROJECTS\DPBR\DPBR\X64\DEBUG\VC140.PDB
C:\USERS\ADMIN\GITPROJECTS\DPBR\DPBR\X64\DEBUG\VC140.IDB
C:\USERS\ADMIN\GITPROJECTS\DPBR\DPBR\X64\DEBUG\RENDERER.OBJ
^C:\USERS\ADMIN\GITPROJECTS\DPBR\DPBR\SHADER.CPP
C:\USERS\ADMIN\GITPROJECTS\DPBR\DPBR\X64\DEBUG\VC140.PDB
^C:\USERS\ADMIN\GITPROJECTS\DPBR\DPBR\TEXTURE.CPP
C:\USERS\ADMIN\GITPROJECTS\DPBR\DPBR\X64\DEBUG\VC140.PDB
^C:\USERS\ADMIN\GITPROJECTS\DPBR\DPBR\DDSLOADER.CPP
C:\USERS\ADMIN\GITPROJECTS\DPBR\DPBR\X64\DEBUG\VC140.PDB
^C:\USERS\ADMIN\GITPROJECTS\DPBR\DPBR\MAIN.CPP
C:\USERS\ADMIN\GITPROJECTS\DPBR\DPBR\X64\DEBUG\VC140.PDB
C:\USERS\ADMIN\GITPROJECTS\DPBR\DPBR\X64\DEBUG\VC140.IDB
C:\USERS\ADMIN\GITPROJECTS\DPBR\DPBR\X64\DEBUG\MAIN.OBJ
