^C:\USERS\ADMIN\GITPROJECTS\DPBR\DPBR\X64\DEBUG\CUBEMAP.OBJ|C:\USERS\ADMIN\GITPROJECTS\DPBR\DPBR\X64\DEBUG\DDSLOADER.OBJ|C:\USERS\ADMIN\GITPROJECTS\DPBR\DPBR\X64\DEBUG\LIGHT.OBJ|C:\USERS\ADMIN\GITPROJECTS\DPBR\DPBR\X64\DEBUG\MAIN.OBJ|C:\USERS\ADMIN\GITPROJECTS\DPBR\DPBR\X64\DEBUG\MODEL.OBJ|C:\USERS\ADMIN\GITPROJECTS\DPBR\DPBR\X64\DEBUG\RENDERER.OBJ|C:\USERS\ADMIN\GITPROJECTS\DPBR\DPBR\X64\DEBUG\SHADER.OBJ|C:\USERS\ADMIN\GITPROJECTS\DPBR\DPBR\X64\DEBUG\TEXTURE.OBJ
C:\WINDOWS\GLOBALIZATION\SORTING\SORTDEFAULT.NLS
C:\USERS\ADMIN\GITPROJECTS\DPBR\EXTLIBS\GLFW-3.2.1.BIN.WIN64\LIB-VC2015\GLFW3.LIB
C:\USERS\ADMIN\GITPROJECTS\DPBR\EXTLIBS\GLEW-2.0.0\LIB\RELEASE\X64\GLEW32.LIB
C:\PROGRAM FILES (X86)\WINDOWS KITS\8.1\LIB\WINV6.3\UM\X64\OPENGL32.LIB
C:\PROGRAM FILES (X86)\WINDOWS KITS\8.1\LIB\WINV6.3\UM\X64\KERNEL32.LIB
C:\PROGRAM FILES (X86)\WINDOWS KITS\8.1\LIB\WINV6.3\UM\X64\USER32.LIB
C:\PROGRAM FILES (X86)\WINDOWS KITS\8.1\LIB\WINV6.3\UM\X64\GDI32.LIB
C:\PROGRAM FILES (X86)\WINDOWS KITS\8.1\LIB\WINV6.3\UM\X64\WINSPOOL.LIB
C:\PROGRAM FILES (X86)\WINDOWS KITS\8.1\LIB\WINV6.3\UM\X64\COMDLG32.LIB
C:\PROGRAM FILES (X86)\WINDOWS KITS\8.1\LIB\WINV6.3\UM\X64\ADVAPI32.LIB
C:\PROGRAM FILES (X86)\WINDOWS KITS\8.1\LIB\WINV6.3\UM\X64\SHELL32.LIB
C:\PROGRAM FILES (X86)\WINDOWS KITS\8.1\LIB\WINV6.3\UM\X64\OLE32.LIB
C:\PROGRAM FILES (X86)\WINDOWS KITS\8.1\LIB\WINV6.3\UM\X64\OLEAUT32.LIB
C:\PROGRAM FILES (X86)\WINDOWS KITS\8.1\LIB\WINV6.3\UM\X64\UUID.LIB
C:\PROGRAM FILES (X86)\WINDOWS KITS\8.1\LIB\WINV6.3\UM\X64\ODBC32.LIB
C:\PROGRAM FILES (X86)\WINDOWS KITS\8.1\LIB\WINV6.3\UM\X64\ODBCCP32.LIB
C:\USERS\ADMIN\GITPROJECTS\DPBR\DPBR\X64\DEBUG\CUBEMAP.OBJ
C:\USERS\ADMIN\GITPROJECTS\DPBR\DPBR\X64\DEBUG\DDSLOADER.OBJ
C:\USERS\ADMIN\GITPROJECTS\DPBR\DPBR\X64\DEBUG\LIGHT.OBJ
C:\USERS\ADMIN\GITPROJECTS\DPBR\DPBR\X64\DEBUG\MAIN.OBJ
C:\USERS\ADMIN\GITPROJECTS\DPBR\DPBR\X64\DEBUG\MODEL.OBJ
C:\USERS\ADMIN\GITPROJECTS\DPBR\DPBR\X64\DEBUG\RENDERER.OBJ
C:\USERS\ADMIN\GITPROJECTS\DPBR\DPBR\X64\DEBUG\SHADER.OBJ
C:\USERS\ADMIN\GITPROJECTS\DPBR\DPBR\X64\DEBUG\TEXTURE.OBJ
C:\WINDOWS\SYSTEM32\TZRES.DLL
C:\PROGRAM FILES (X86)\MICROSOFT VISUAL STUDIO 14.0\VC\LIB\AMD64\MSVCPRTD.LIB
C:\PROGRAM FILES (X86)\MICROSOFT VISUAL STUDIO 14.0\VC\LIB\AMD64\MSVCRTD.LIB
C:\PROGRAM FILES (X86)\MICROSOFT VISUAL STUDIO 14.0\VC\LIB\AMD64\OLDNAMES.LIB
C:\PROGRAM FILES (X86)\MICROSOFT VISUAL STUDIO 14.0\VC\LIB\AMD64\MSVCRT.LIB
C:\PROGRAM FILES (X86)\MICROSOFT VISUAL STUDIO 14.0\VC\LIB\AMD64\VCRUNTIMED.LIB
C:\PROGRAM FILES (X86)\WINDOWS KITS\10\LIB\10.0.10240.0\UCRT\X64\UCRTD.LIB
