^C:\USERS\ADMIN\GITPROJECTS\SKELETONSYSTEMOPENGL\SKELETONSYSTEMOPENGL\CAMERA.CPP
/c /IC:\USERS\ADMIN\GITPROJECTS\SKELETONSYSTEMOPENGL\\ASSIMP\INCLUDE /I"C:\USERS\ADMIN\GITPROJECTS\SKELETONSYSTEMOPENGL\\SIMPLE OPENGL IMAGE LIBRARY\SRC" /I"C:\USERS\ADMIN\GITPROJECTS\SKELETONSYSTEMOPENGL\\GLEW-2.0.0\INCLUDE" /I"C:\USERS\ADMIN\GITPROJECTS\SKELETONSYSTEMOPENGL\\GLFW-3.2.1.BIN.WIN32\INCLUDE" /ZI /nologo /W3 /WX- /sdl /Od /Oy- /D _MBCS /Gm /EHsc /RTC1 /MDd /GS /fp:precise /Zc:wchar_t /Zc:forScope /Zc:inline /Fo"DEBUG\\" /Fd"DEBUG\VC140.PDB" /Gd /TP /analyze- C:\USERS\ADMIN\GITPROJECTS\SKELETONSYSTEMOPENGL\SKELETONSYSTEMOPENGL\CAMERA.CPP
^C:\USERS\ADMIN\GITPROJECTS\SKELETONSYSTEMOPENGL\SKELETONSYSTEMOPENGL\MAIN.CPP
/c /IC:\USERS\ADMIN\GITPROJECTS\SKELETONSYSTEMOPENGL\\ASSIMP\INCLUDE /I"C:\USERS\ADMIN\GITPROJECTS\SKELETONSYSTEMOPENGL\\SIMPLE OPENGL IMAGE LIBRARY\SRC" /I"C:\USERS\ADMIN\GITPROJECTS\SKELETONSYSTEMOPENGL\\GLEW-2.0.0\INCLUDE" /I"C:\USERS\ADMIN\GITPROJECTS\SKELETONSYSTEMOPENGL\\GLFW-3.2.1.BIN.WIN32\INCLUDE" /ZI /nologo /W3 /WX- /sdl /Od /Oy- /D _MBCS /Gm /EHsc /RTC1 /MDd /GS /fp:precise /Zc:wchar_t /Zc:forScope /Zc:inline /Fo"DEBUG\\" /Fd"DEBUG\VC140.PDB" /Gd /TP /analyze- C:\USERS\ADMIN\GITPROJECTS\SKELETONSYSTEMOPENGL\SKELETONSYSTEMOPENGL\MAIN.CPP
^C:\USERS\ADMIN\GITPROJECTS\SKELETONSYSTEMOPENGL\SKELETONSYSTEMOPENGL\MESH.CPP
/c /IC:\USERS\ADMIN\GITPROJECTS\SKELETONSYSTEMOPENGL\\ASSIMP\INCLUDE /I"C:\USERS\ADMIN\GITPROJECTS\SKELETONSYSTEMOPENGL\\SIMPLE OPENGL IMAGE LIBRARY\SRC" /I"C:\USERS\ADMIN\GITPROJECTS\SKELETONSYSTEMOPENGL\\GLEW-2.0.0\INCLUDE" /I"C:\USERS\ADMIN\GITPROJECTS\SKELETONSYSTEMOPENGL\\GLFW-3.2.1.BIN.WIN32\INCLUDE" /ZI /nologo /W3 /WX- /sdl /Od /Oy- /D _MBCS /Gm /EHsc /RTC1 /MDd /GS /fp:precise /Zc:wchar_t /Zc:forScope /Zc:inline /Fo"DEBUG\\" /Fd"DEBUG\VC140.PDB" /Gd /TP /analyze- C:\USERS\ADMIN\GITPROJECTS\SKELETONSYSTEMOPENGL\SKELETONSYSTEMOPENGL\MESH.CPP
^C:\USERS\ADMIN\GITPROJECTS\SKELETONSYSTEMOPENGL\SKELETONSYSTEMOPENGL\MODEL.CPP
/c /IC:\USERS\ADMIN\GITPROJECTS\SKELETONSYSTEMOPENGL\\ASSIMP\INCLUDE /I"C:\USERS\ADMIN\GITPROJECTS\SKELETONSYSTEMOPENGL\\SIMPLE OPENGL IMAGE LIBRARY\SRC" /I"C:\USERS\ADMIN\GITPROJECTS\SKELETONSYSTEMOPENGL\\GLEW-2.0.0\INCLUDE" /I"C:\USERS\ADMIN\GITPROJECTS\SKELETONSYSTEMOPENGL\\GLFW-3.2.1.BIN.WIN32\INCLUDE" /ZI /nologo /W3 /WX- /sdl /Od /Oy- /D _MBCS /Gm /EHsc /RTC1 /MDd /GS /fp:precise /Zc:wchar_t /Zc:forScope /Zc:inline /Fo"DEBUG\\" /Fd"DEBUG\VC140.PDB" /Gd /TP /analyze- C:\USERS\ADMIN\GITPROJECTS\SKELETONSYSTEMOPENGL\SKELETONSYSTEMOPENGL\MODEL.CPP
^C:\USERS\ADMIN\GITPROJECTS\SKELETONSYSTEMOPENGL\SKELETONSYSTEMOPENGL\RENDERER.CPP
/c /IC:\USERS\ADMIN\GITPROJECTS\SKELETONSYSTEMOPENGL\\ASSIMP\INCLUDE /I"C:\USERS\ADMIN\GITPROJECTS\SKELETONSYSTEMOPENGL\\SIMPLE OPENGL IMAGE LIBRARY\SRC" /I"C:\USERS\ADMIN\GITPROJECTS\SKELETONSYSTEMOPENGL\\GLEW-2.0.0\INCLUDE" /I"C:\USERS\ADMIN\GITPROJECTS\SKELETONSYSTEMOPENGL\\GLFW-3.2.1.BIN.WIN32\INCLUDE" /ZI /nologo /W3 /WX- /sdl /Od /Oy- /D _MBCS /Gm /EHsc /RTC1 /MDd /GS /fp:precise /Zc:wchar_t /Zc:forScope /Zc:inline /Fo"DEBUG\\" /Fd"DEBUG\VC140.PDB" /Gd /TP /analyze- C:\USERS\ADMIN\GITPROJECTS\SKELETONSYSTEMOPENGL\SKELETONSYSTEMOPENGL\RENDERER.CPP
^C:\USERS\ADMIN\GITPROJECTS\SKELETONSYSTEMOPENGL\SKELETONSYSTEMOPENGL\SHADER.CPP
/c /IC:\USERS\ADMIN\GITPROJECTS\SKELETONSYSTEMOPENGL\\ASSIMP\INCLUDE /I"C:\USERS\ADMIN\GITPROJECTS\SKELETONSYSTEMOPENGL\\SIMPLE OPENGL IMAGE LIBRARY\SRC" /I"C:\USERS\ADMIN\GITPROJECTS\SKELETONSYSTEMOPENGL\\GLEW-2.0.0\INCLUDE" /I"C:\USERS\ADMIN\GITPROJECTS\SKELETONSYSTEMOPENGL\\GLFW-3.2.1.BIN.WIN32\INCLUDE" /ZI /nologo /W3 /WX- /sdl /Od /Oy- /D _MBCS /Gm /EHsc /RTC1 /MDd /GS /fp:precise /Zc:wchar_t /Zc:forScope /Zc:inline /Fo"DEBUG\\" /Fd"DEBUG\VC140.PDB" /Gd /TP /analyze- C:\USERS\ADMIN\GITPROJECTS\SKELETONSYSTEMOPENGL\SKELETONSYSTEMOPENGL\SHADER.CPP
^C:\USERS\ADMIN\GITPROJECTS\SKELETONSYSTEMOPENGL\SKELETONSYSTEMOPENGL\TEXTURE.CPP
/c /IC:\USERS\ADMIN\GITPROJECTS\SKELETONSYSTEMOPENGL\\ASSIMP\INCLUDE /I"C:\USERS\ADMIN\GITPROJECTS\SKELETONSYSTEMOPENGL\\SIMPLE OPENGL IMAGE LIBRARY\SRC" /I"C:\USERS\ADMIN\GITPROJECTS\SKELETONSYSTEMOPENGL\\GLEW-2.0.0\INCLUDE" /I"C:\USERS\ADMIN\GITPROJECTS\SKELETONSYSTEMOPENGL\\GLFW-3.2.1.BIN.WIN32\INCLUDE" /ZI /nologo /W3 /WX- /sdl /Od /Oy- /D _MBCS /Gm /EHsc /RTC1 /MDd /GS /fp:precise /Zc:wchar_t /Zc:forScope /Zc:inline /Fo"DEBUG\\" /Fd"DEBUG\VC140.PDB" /Gd /TP /analyze- C:\USERS\ADMIN\GITPROJECTS\SKELETONSYSTEMOPENGL\SKELETONSYSTEMOPENGL\TEXTURE.CPP
