^C:\USERS\ADMIN\GITPROJECTS\SKELETONSYSTEMOPENGL\SKELETONSYSTEMOPENGL\CAMERA.CPP|C:\USERS\ADMIN\GITPROJECTS\SKELETONSYSTEMOPENGL\SKELETONSYSTEMOPENGL\MAIN.CPP|C:\USERS\ADMIN\GITPROJECTS\SKELETONSYSTEMOPENGL\SKELETONSYSTEMOPENGL\MESH.CPP|C:\USERS\ADMIN\GITPROJECTS\SKELETONSYSTEMOPENGL\SKELETONSYSTEMOPENGL\MODEL.CPP|C:\USERS\ADMIN\GITPROJECTS\SKELETONSYSTEMOPENGL\SKELETONSYSTEMOPENGL\RENDERER.CPP|C:\USERS\ADMIN\GITPROJECTS\SKELETONSYSTEMOPENGL\SKELETONSYSTEMOPENGL\SHADER.CPP|C:\USERS\ADMIN\GITPROJECTS\SKELETONSYSTEMOPENGL\SKELETONSYSTEMOPENGL\TEXTURE.CPP
C:\USERS\ADMIN\GITPROJECTS\SKELETONSYSTEMOPENGL\SKELETONSYSTEMOPENGL\DEBUG\VC140.PDB
C:\USERS\ADMIN\GITPROJECTS\SKELETONSYSTEMOPENGL\SKELETONSYSTEMOPENGL\DEBUG\VC140.IDB
C:\USERS\ADMIN\GITPROJECTS\SKELETONSYSTEMOPENGL\SKELETONSYSTEMOPENGL\DEBUG\CAMERA.OBJ
C:\USERS\ADMIN\GITPROJECTS\SKELETONSYSTEMOPENGL\SKELETONSYSTEMOPENGL\DEBUG\MAIN.OBJ
C:\USERS\ADMIN\GITPROJECTS\SKELETONSYSTEMOPENGL\SKELETONSYSTEMOPENGL\DEBUG\MESH.OBJ
C:\USERS\ADMIN\GITPROJECTS\SKELETONSYSTEMOPENGL\SKELETONSYSTEMOPENGL\DEBUG\MODEL.OBJ
C:\USERS\ADMIN\GITPROJECTS\SKELETONSYSTEMOPENGL\SKELETONSYSTEMOPENGL\DEBUG\RENDERER.OBJ
C:\USERS\ADMIN\GITPROJECTS\SKELETONSYSTEMOPENGL\SKELETONSYSTEMOPENGL\DEBUG\SHADER.OBJ
C:\USERS\ADMIN\GITPROJECTS\SKELETONSYSTEMOPENGL\SKELETONSYSTEMOPENGL\DEBUG\TEXTURE.OBJ
^C:\USERS\ADMIN\GITPROJECTS\SKELETONSYSTEMOPENGL\SKELETONSYSTEMOPENGL\CAMERA.CPP
C:\USERS\ADMIN\GITPROJECTS\SKELETONSYSTEMOPENGL\SKELETONSYSTEMOPENGL\DEBUG\VC140.PDB
^C:\USERS\ADMIN\GITPROJECTS\SKELETONSYSTEMOPENGL\SKELETONSYSTEMOPENGL\MAIN.CPP
C:\USERS\ADMIN\GITPROJECTS\SKELETONSYSTEMOPENGL\SKELETONSYSTEMOPENGL\DEBUG\VC140.PDB
C:\USERS\ADMIN\GITPROJECTS\SKELETONSYSTEMOPENGL\SKELETONSYSTEMOPENGL\DEBUG\VC140.IDB
C:\USERS\ADMIN\GITPROJECTS\SKELETONSYSTEMOPENGL\SKELETONSYSTEMOPENGL\DEBUG\MAIN.OBJ
^C:\USERS\ADMIN\GITPROJECTS\SKELETONSYSTEMOPENGL\SKELETONSYSTEMOPENGL\MESH.CPP
C:\USERS\ADMIN\GITPROJECTS\SKELETONSYSTEMOPENGL\SKELETONSYSTEMOPENGL\DEBUG\VC140.PDB
C:\USERS\ADMIN\GITPROJECTS\SKELETONSYSTEMOPENGL\SKELETONSYSTEMOPENGL\DEBUG\VC140.IDB
C:\USERS\ADMIN\GITPROJECTS\SKELETONSYSTEMOPENGL\SKELETONSYSTEMOPENGL\DEBUG\MESH.OBJ
^C:\USERS\ADMIN\GITPROJECTS\SKELETONSYSTEMOPENGL\SKELETONSYSTEMOPENGL\MODEL.CPP
C:\USERS\ADMIN\GITPROJECTS\SKELETONSYSTEMOPENGL\SKELETONSYSTEMOPENGL\DEBUG\VC140.PDB
C:\USERS\ADMIN\GITPROJECTS\SKELETONSYSTEMOPENGL\SKELETONSYSTEMOPENGL\DEBUG\VC140.IDB
C:\USERS\ADMIN\GITPROJECTS\SKELETONSYSTEMOPENGL\SKELETONSYSTEMOPENGL\DEBUG\MODEL.OBJ
^C:\USERS\ADMIN\GITPROJECTS\SKELETONSYSTEMOPENGL\SKELETONSYSTEMOPENGL\RENDERER.CPP
C:\USERS\ADMIN\GITPROJECTS\SKELETONSYSTEMOPENGL\SKELETONSYSTEMOPENGL\DEBUG\VC140.PDB
^C:\USERS\ADMIN\GITPROJECTS\SKELETONSYSTEMOPENGL\SKELETONSYSTEMOPENGL\SHADER.CPP
C:\USERS\ADMIN\GITPROJECTS\SKELETONSYSTEMOPENGL\SKELETONSYSTEMOPENGL\DEBUG\VC140.PDB
C:\USERS\ADMIN\GITPROJECTS\SKELETONSYSTEMOPENGL\SKELETONSYSTEMOPENGL\DEBUG\VC140.IDB
C:\USERS\ADMIN\GITPROJECTS\SKELETONSYSTEMOPENGL\SKELETONSYSTEMOPENGL\DEBUG\SHADER.OBJ
^C:\USERS\ADMIN\GITPROJECTS\SKELETONSYSTEMOPENGL\SKELETONSYSTEMOPENGL\TEXTURE.CPP
C:\USERS\ADMIN\GITPROJECTS\SKELETONSYSTEMOPENGL\SKELETONSYSTEMOPENGL\DEBUG\VC140.PDB
C:\USERS\ADMIN\GITPROJECTS\SKELETONSYSTEMOPENGL\SKELETONSYSTEMOPENGL\DEBUG\VC140.IDB
C:\USERS\ADMIN\GITPROJECTS\SKELETONSYSTEMOPENGL\SKELETONSYSTEMOPENGL\DEBUG\TEXTURE.OBJ
^C:\USERS\ADMIN\GITPROJECTS\SKELETONSYSTEMOPENGL\SKELETONSYSTEMOPENGL\MAIN.CPP|C:\USERS\ADMIN\GITPROJECTS\SKELETONSYSTEMOPENGL\SKELETONSYSTEMOPENGL\MODEL.CPP
C:\USERS\ADMIN\GITPROJECTS\SKELETONSYSTEMOPENGL\SKELETONSYSTEMOPENGL\DEBUG\VC140.PDB
C:\USERS\ADMIN\GITPROJECTS\SKELETONSYSTEMOPENGL\SKELETONSYSTEMOPENGL\DEBUG\VC140.IDB
C:\USERS\ADMIN\GITPROJECTS\SKELETONSYSTEMOPENGL\SKELETONSYSTEMOPENGL\DEBUG\MODEL.OBJ
C:\USERS\ADMIN\GITPROJECTS\SKELETONSYSTEMOPENGL\SKELETONSYSTEMOPENGL\DEBUG\MAIN.OBJ
^C:\USERS\ADMIN\GITPROJECTS\SKELETONSYSTEMOPENGL\SKELETONSYSTEMOPENGL\MAIN.CPP|C:\USERS\ADMIN\GITPROJECTS\SKELETONSYSTEMOPENGL\SKELETONSYSTEMOPENGL\MODEL.CPP|C:\USERS\ADMIN\GITPROJECTS\SKELETONSYSTEMOPENGL\SKELETONSYSTEMOPENGL\RENDERER.CPP
C:\USERS\ADMIN\GITPROJECTS\SKELETONSYSTEMOPENGL\SKELETONSYSTEMOPENGL\DEBUG\VC140.PDB
C:\USERS\ADMIN\GITPROJECTS\SKELETONSYSTEMOPENGL\SKELETONSYSTEMOPENGL\DEBUG\VC140.IDB
C:\USERS\ADMIN\GITPROJECTS\SKELETONSYSTEMOPENGL\SKELETONSYSTEMOPENGL\DEBUG\RENDERER.OBJ
C:\USERS\ADMIN\GITPROJECTS\SKELETONSYSTEMOPENGL\SKELETONSYSTEMOPENGL\DEBUG\MAIN.OBJ
^C:\USERS\ADMIN\GITPROJECTS\SKELETONSYSTEMOPENGL\SKELETONSYSTEMOPENGL\MAIN.CPP|C:\USERS\ADMIN\GITPROJECTS\SKELETONSYSTEMOPENGL\SKELETONSYSTEMOPENGL\TEXTURE.CPP
C:\USERS\ADMIN\GITPROJECTS\SKELETONSYSTEMOPENGL\SKELETONSYSTEMOPENGL\DEBUG\VC140.PDB
C:\USERS\ADMIN\GITPROJECTS\SKELETONSYSTEMOPENGL\SKELETONSYSTEMOPENGL\DEBUG\VC140.IDB
C:\USERS\ADMIN\GITPROJECTS\SKELETONSYSTEMOPENGL\SKELETONSYSTEMOPENGL\DEBUG\TEXTURE.OBJ
C:\USERS\ADMIN\GITPROJECTS\SKELETONSYSTEMOPENGL\SKELETONSYSTEMOPENGL\DEBUG\MAIN.OBJ
^C:\USERS\ADMIN\GITPROJECTS\SKELETONSYSTEMOPENGL\SKELETONSYSTEMOPENGL\MESH.CPP|C:\USERS\ADMIN\GITPROJECTS\SKELETONSYSTEMOPENGL\SKELETONSYSTEMOPENGL\MODEL.CPP
C:\USERS\ADMIN\GITPROJECTS\SKELETONSYSTEMOPENGL\SKELETONSYSTEMOPENGL\DEBUG\VC140.PDB
C:\USERS\ADMIN\GITPROJECTS\SKELETONSYSTEMOPENGL\SKELETONSYSTEMOPENGL\DEBUG\VC140.IDB
C:\USERS\ADMIN\GITPROJECTS\SKELETONSYSTEMOPENGL\SKELETONSYSTEMOPENGL\DEBUG\MESH.OBJ
C:\USERS\ADMIN\GITPROJECTS\SKELETONSYSTEMOPENGL\SKELETONSYSTEMOPENGL\DEBUG\MODEL.OBJ
^C:\USERS\ADMIN\GITPROJECTS\SKELETONSYSTEMOPENGL\SKELETONSYSTEMOPENGL\MAIN.CPP|C:\USERS\ADMIN\GITPROJECTS\SKELETONSYSTEMOPENGL\SKELETONSYSTEMOPENGL\MESH.CPP|C:\USERS\ADMIN\GITPROJECTS\SKELETONSYSTEMOPENGL\SKELETONSYSTEMOPENGL\MODEL.CPP|C:\USERS\ADMIN\GITPROJECTS\SKELETONSYSTEMOPENGL\SKELETONSYSTEMOPENGL\RENDERER.CPP
C:\USERS\ADMIN\GITPROJECTS\SKELETONSYSTEMOPENGL\SKELETONSYSTEMOPENGL\DEBUG\VC140.PDB
C:\USERS\ADMIN\GITPROJECTS\SKELETONSYSTEMOPENGL\SKELETONSYSTEMOPENGL\DEBUG\VC140.IDB
C:\USERS\ADMIN\GITPROJECTS\SKELETONSYSTEMOPENGL\SKELETONSYSTEMOPENGL\DEBUG\RENDERER.OBJ
C:\USERS\ADMIN\GITPROJECTS\SKELETONSYSTEMOPENGL\SKELETONSYSTEMOPENGL\DEBUG\MAIN.OBJ
C:\USERS\ADMIN\GITPROJECTS\SKELETONSYSTEMOPENGL\SKELETONSYSTEMOPENGL\DEBUG\MODEL.OBJ
C:\USERS\ADMIN\GITPROJECTS\SKELETONSYSTEMOPENGL\SKELETONSYSTEMOPENGL\DEBUG\MESH.OBJ
^C:\USERS\ADMIN\GITPROJECTS\SKELETONSYSTEMOPENGL\SKELETONSYSTEMOPENGL\MAIN.CPP|C:\USERS\ADMIN\GITPROJECTS\SKELETONSYSTEMOPENGL\SKELETONSYSTEMOPENGL\MESH.CPP
C:\USERS\ADMIN\GITPROJECTS\SKELETONSYSTEMOPENGL\SKELETONSYSTEMOPENGL\DEBUG\VC140.PDB
C:\USERS\ADMIN\GITPROJECTS\SKELETONSYSTEMOPENGL\SKELETONSYSTEMOPENGL\DEBUG\VC140.IDB
C:\USERS\ADMIN\GITPROJECTS\SKELETONSYSTEMOPENGL\SKELETONSYSTEMOPENGL\DEBUG\MESH.OBJ
C:\USERS\ADMIN\GITPROJECTS\SKELETONSYSTEMOPENGL\SKELETONSYSTEMOPENGL\DEBUG\MAIN.OBJ
^C:\USERS\ADMIN\GITPROJECTS\SKELETONSYSTEMOPENGL\SKELETONSYSTEMOPENGL\MODEL.CPP|C:\USERS\ADMIN\GITPROJECTS\SKELETONSYSTEMOPENGL\SKELETONSYSTEMOPENGL\SHADER.CPP
C:\USERS\ADMIN\GITPROJECTS\SKELETONSYSTEMOPENGL\SKELETONSYSTEMOPENGL\DEBUG\VC140.PDB
C:\USERS\ADMIN\GITPROJECTS\SKELETONSYSTEMOPENGL\SKELETONSYSTEMOPENGL\DEBUG\VC140.IDB
C:\USERS\ADMIN\GITPROJECTS\SKELETONSYSTEMOPENGL\SKELETONSYSTEMOPENGL\DEBUG\MODEL.OBJ
C:\USERS\ADMIN\GITPROJECTS\SKELETONSYSTEMOPENGL\SKELETONSYSTEMOPENGL\DEBUG\SHADER.OBJ
^C:\USERS\ADMIN\GITPROJECTS\SKELETONSYSTEMOPENGL\SKELETONSYSTEMOPENGL\MAIN.CPP|C:\USERS\ADMIN\GITPROJECTS\SKELETONSYSTEMOPENGL\SKELETONSYSTEMOPENGL\MODEL.CPP|C:\USERS\ADMIN\GITPROJECTS\SKELETONSYSTEMOPENGL\SKELETONSYSTEMOPENGL\RENDERER.CPP|C:\USERS\ADMIN\GITPROJECTS\SKELETONSYSTEMOPENGL\SKELETONSYSTEMOPENGL\SHADER.CPP
C:\USERS\ADMIN\GITPROJECTS\SKELETONSYSTEMOPENGL\SKELETONSYSTEMOPENGL\DEBUG\VC140.PDB
C:\USERS\ADMIN\GITPROJECTS\SKELETONSYSTEMOPENGL\SKELETONSYSTEMOPENGL\DEBUG\VC140.IDB
C:\USERS\ADMIN\GITPROJECTS\SKELETONSYSTEMOPENGL\SKELETONSYSTEMOPENGL\DEBUG\MODEL.OBJ
C:\USERS\ADMIN\GITPROJECTS\SKELETONSYSTEMOPENGL\SKELETONSYSTEMOPENGL\DEBUG\SHADER.OBJ
C:\USERS\ADMIN\GITPROJECTS\SKELETONSYSTEMOPENGL\SKELETONSYSTEMOPENGL\DEBUG\MAIN.OBJ
^C:\USERS\ADMIN\GITPROJECTS\SKELETONSYSTEMOPENGL\SKELETONSYSTEMOPENGL\MAIN.CPP|C:\USERS\ADMIN\GITPROJECTS\SKELETONSYSTEMOPENGL\SKELETONSYSTEMOPENGL\MESH.CPP|C:\USERS\ADMIN\GITPROJECTS\SKELETONSYSTEMOPENGL\SKELETONSYSTEMOPENGL\MODEL.CPP
C:\USERS\ADMIN\GITPROJECTS\SKELETONSYSTEMOPENGL\SKELETONSYSTEMOPENGL\DEBUG\VC140.PDB
C:\USERS\ADMIN\GITPROJECTS\SKELETONSYSTEMOPENGL\SKELETONSYSTEMOPENGL\DEBUG\VC140.IDB
C:\USERS\ADMIN\GITPROJECTS\SKELETONSYSTEMOPENGL\SKELETONSYSTEMOPENGL\DEBUG\MESH.OBJ
C:\USERS\ADMIN\GITPROJECTS\SKELETONSYSTEMOPENGL\SKELETONSYSTEMOPENGL\DEBUG\MODEL.OBJ
C:\USERS\ADMIN\GITPROJECTS\SKELETONSYSTEMOPENGL\SKELETONSYSTEMOPENGL\DEBUG\MAIN.OBJ
^C:\USERS\ADMIN\GITPROJECTS\SKELETONSYSTEMOPENGL\SKELETONSYSTEMOPENGL\MAIN.CPP|C:\USERS\ADMIN\GITPROJECTS\SKELETONSYSTEMOPENGL\SKELETONSYSTEMOPENGL\SHADER.CPP|C:\USERS\ADMIN\GITPROJECTS\SKELETONSYSTEMOPENGL\SKELETONSYSTEMOPENGL\TEXTURE.CPP
C:\USERS\ADMIN\GITPROJECTS\SKELETONSYSTEMOPENGL\SKELETONSYSTEMOPENGL\DEBUG\VC140.PDB
C:\USERS\ADMIN\GITPROJECTS\SKELETONSYSTEMOPENGL\SKELETONSYSTEMOPENGL\DEBUG\VC140.IDB
C:\USERS\ADMIN\GITPROJECTS\SKELETONSYSTEMOPENGL\SKELETONSYSTEMOPENGL\DEBUG\TEXTURE.OBJ
C:\USERS\ADMIN\GITPROJECTS\SKELETONSYSTEMOPENGL\SKELETONSYSTEMOPENGL\DEBUG\MAIN.OBJ
