^C:\USERS\ADMIN\GITPROJECTS\SKELETONSYSTEMOPENGL\SKELETONSYSTEMOPENGL\DEBUG\CAMERA.OBJ|C:\USERS\ADMIN\GITPROJECTS\SKELETONSYSTEMOPENGL\SKELETONSYSTEMOPENGL\DEBUG\MAIN.OBJ|C:\USERS\ADMIN\GITPROJECTS\SKELETONSYSTEMOPENGL\SKELETONSYSTEMOPENGL\DEBUG\MESH.OBJ|C:\USERS\ADMIN\GITPROJECTS\SKELETONSYSTEMOPENGL\SKELETONSYSTEMOPENGL\DEBUG\MODEL.OBJ|C:\USERS\ADMIN\GITPROJECTS\SKELETONSYSTEMOPENGL\SKELETONSYSTEMOPENGL\DEBUG\SHADER.OBJ|C:\USERS\ADMIN\GITPROJECTS\SKELETONSYSTEMOPENGL\SKELETONSYSTEMOPENGL\DEBUG\TEXTURE.OBJ
C:\WINDOWS\GLOBALIZATION\SORTING\SORTDEFAULT.NLS
C:\PROGRAM FILES (X86)\WINDOWS KITS\8.1\LIB\WINV6.3\UM\X86\OPENGL32.LIB
C:\USERS\ADMIN\GITPROJECTS\SKELETONSYSTEMOPENGL\GLFW-3.2.1.BIN.WIN32\LIB-VC2015\GLFW3.LIB
C:\USERS\ADMIN\GITPROJECTS\SKELETONSYSTEMOPENGL\GLEW-2.0.0\LIB\RELEASE\WIN32\GLEW32.LIB
C:\USERS\ADMIN\GITPROJECTS\SKELETONSYSTEMOPENGL\SIMPLE OPENGL IMAGE LIBRARY\LIB\SOIL.LIB
C:\USERS\ADMIN\GITPROJECTS\SKELETONSYSTEMOPENGL\ASSIMP\X86\ASSIMP-VC140-MT.LIB
C:\PROGRAM FILES (X86)\WINDOWS KITS\8.1\LIB\WINV6.3\UM\X86\KERNEL32.LIB
C:\PROGRAM FILES (X86)\WINDOWS KITS\8.1\LIB\WINV6.3\UM\X86\USER32.LIB
C:\PROGRAM FILES (X86)\WINDOWS KITS\8.1\LIB\WINV6.3\UM\X86\GDI32.LIB
C:\PROGRAM FILES (X86)\WINDOWS KITS\8.1\LIB\WINV6.3\UM\X86\WINSPOOL.LIB
C:\PROGRAM FILES (X86)\WINDOWS KITS\8.1\LIB\WINV6.3\UM\X86\COMDLG32.LIB
C:\PROGRAM FILES (X86)\WINDOWS KITS\8.1\LIB\WINV6.3\UM\X86\ADVAPI32.LIB
C:\PROGRAM FILES (X86)\WINDOWS KITS\8.1\LIB\WINV6.3\UM\X86\SHELL32.LIB
C:\PROGRAM FILES (X86)\WINDOWS KITS\8.1\LIB\WINV6.3\UM\X86\OLE32.LIB
C:\PROGRAM FILES (X86)\WINDOWS KITS\8.1\LIB\WINV6.3\UM\X86\OLEAUT32.LIB
C:\PROGRAM FILES (X86)\WINDOWS KITS\8.1\LIB\WINV6.3\UM\X86\UUID.LIB
C:\PROGRAM FILES (X86)\WINDOWS KITS\8.1\LIB\WINV6.3\UM\X86\ODBC32.LIB
C:\PROGRAM FILES (X86)\WINDOWS KITS\8.1\LIB\WINV6.3\UM\X86\ODBCCP32.LIB
C:\USERS\ADMIN\GITPROJECTS\SKELETONSYSTEMOPENGL\SKELETONSYSTEMOPENGL\DEBUG\CAMERA.OBJ
C:\USERS\ADMIN\GITPROJECTS\SKELETONSYSTEMOPENGL\SKELETONSYSTEMOPENGL\DEBUG\MAIN.OBJ
C:\USERS\ADMIN\GITPROJECTS\SKELETONSYSTEMOPENGL\SKELETONSYSTEMOPENGL\DEBUG\MESH.OBJ
C:\USERS\ADMIN\GITPROJECTS\SKELETONSYSTEMOPENGL\SKELETONSYSTEMOPENGL\DEBUG\MODEL.OBJ
C:\USERS\ADMIN\GITPROJECTS\SKELETONSYSTEMOPENGL\SKELETONSYSTEMOPENGL\DEBUG\SHADER.OBJ
C:\USERS\ADMIN\GITPROJECTS\SKELETONSYSTEMOPENGL\SKELETONSYSTEMOPENGL\DEBUG\TEXTURE.OBJ
C:\PROGRAM FILES (X86)\MICROSOFT VISUAL STUDIO 14.0\VC\BIN\1033\LINKUI.DLL
C:\PROGRAM FILES (X86)\MICROSOFT VISUAL STUDIO 14.0\VC\BIN\LINK.EXE
C:\WINDOWS\SYSTEM32\TZRES.DLL
C:\PROGRAM FILES (X86)\MICROSOFT VISUAL STUDIO 14.0\VC\BIN\C2.DLL
C:\PROGRAM FILES (X86)\MICROSOFT VISUAL STUDIO 14.0\VC\LIB\MSVCPRTD.LIB
C:\PROGRAM FILES (X86)\MICROSOFT VISUAL STUDIO 14.0\VC\LIB\MSVCRTD.LIB
C:\PROGRAM FILES (X86)\MICROSOFT VISUAL STUDIO 14.0\VC\LIB\OLDNAMES.LIB
C:\PROGRAM FILES (X86)\MICROSOFT VISUAL STUDIO 14.0\VC\LIB\MSVCRT.LIB
C:\PROGRAM FILES (X86)\MICROSOFT VISUAL STUDIO 14.0\VC\LIB\VCRUNTIMED.LIB
C:\PROGRAM FILES (X86)\WINDOWS KITS\10\LIB\10.0.10240.0\UCRT\X86\UCRTD.LIB
C:\PROGRAM FILES (X86)\WINDOWS KITS\8.1\BIN\X86\RC.EXE
C:\PROGRAM FILES (X86)\MICROSOFT VISUAL STUDIO 14.0\VC\BIN\CVTRES.EXE
